<?xml version="1.0" encoding="utf-8"?>
<!-- Generator: Adobe Illustrator 22.1.0, SVG Export Plug-In . SVG Version: 6.00 Build 0)  -->
<svg version="1.1" id="Layer_2" xmlns="http://www.w3.org/2000/svg" xmlns:xlink="http://www.w3.org/1999/xlink" x="0px" y="0px"
	 width="387.9px" height="42px" viewBox="0 0 387.9 42" style="enable-background:new 0 0 387.9 42;" xml:space="preserve">
<style type="text/css">
	.st0{fill:#FFFFFF;}
</style>
<g>
	<path class="st0" d="M0,31.4v-7.9c4.4,2.5,7.3,2.8,9.4,2.8c3,0,4.1-1.2,4.1-2.8c0-2-2.4-2.7-4.7-3.6c-4.7-2-8.8-4-8.8-9.3
		C0,5,5.1,1.3,11.7,1.3c2.4,0,5.7,0.6,8.3,1.4v7.6C16.7,8.7,13.8,8,11.6,8c-2.8,0-3.4,1.3-3.4,2.2c0,1.6,2.6,2.4,5,3.4
		c3.5,1.5,8.5,3.6,8.5,9.6c0,4.6-3.6,9.8-12.5,9.8C6.9,33.1,3.2,32.6,0,31.4z"/>
	<path class="st0" d="M26.3,17.8v-6.3c3.2-1.2,5.9-1.6,8.2-1.6c8.5,0,10.7,5.5,10.7,9.6v11.8c-5.2,1.6-7.9,1.9-11.2,1.9
		c-6.4,0-9.9-3.6-9.9-7.6c0-4,4.6-8.1,12.6-7.7C36.7,15,30.1,14.8,26.3,17.8z M36.7,22.3c-3.9,0.3-4.8,1.8-4.8,3.2
		c0,1.3,1.4,2.7,4.8,2V22.3z"/>
	<path class="st0" d="M72.9,10.3l-10,22.5h-2.7c-2.2,0-4.1-0.6-5.1-2.8l-8.5-19.6h8.8L59.7,22l4.5-11.7H72.9z"/>
	<path class="st0" d="M82.5,23.5c0.2,2.3,2.3,3.3,4.7,3.3c2.6,0,4.1-0.5,7.9-1.8v6.8c-2.9,0.9-5.3,1.4-8.4,1.4
		c-7.6,0-12.7-4.6-12.7-11.3c0-6.8,5-12.1,12.3-12.1c8.5,0,11.3,7.2,10.6,13.7H82.5z M82.8,18.5h6c-0.4-2.1-1.9-2.6-2.8-2.6
		C84.3,15.9,83.4,16.9,82.8,18.5z"/>
	<path class="st0" d="M126.9,10.3v6.4h-5.5v16h-8.1V16.7H110v-6.4h3.3c0.7-8,5.4-12.2,14.5-9.4v6.8c-3.4-1.9-6.5-1.2-6.4,2.6H126.9z
		"/>
	<path class="st0" d="M137.5,32.7h-8.1v-20c2.7-1.8,5.2-2.9,9.4-2.9c1.7,0,3.6,0.3,6.7,1.4v6.5c-2.3-1.1-5.1-1.8-7.9-1.3V32.7z"/>
	<path class="st0" d="M145.8,21.5c0-8,6.2-11.7,12.6-11.7S171,13.6,171,21.5c0,8-6.2,11.7-12.6,11.7S145.8,29.5,145.8,21.5z
		 M154,21.4c0,3.8,1.9,5.5,4.5,5.5c2.6,0,4.5-1.7,4.5-5.5c0-3.8-1.9-5.4-4.5-5.4C155.9,16,154,17.7,154,21.4z"/>
	<path class="st0" d="M209.2,32.7h-8.1V20c0-1.7,0.2-3.8-2.8-3.8c-0.9,0-1.7,0.2-2.4,0.4v16.1h-8.1V20c0-1.7,0.1-3.8-2.8-3.8
		c-0.9,0-1.7,0.2-2.3,0.4v16.1h-8.1V12.4c5-1.9,7.6-2.6,11.3-2.6c0.8,0,3.6,0.1,6.1,1.7c2.2-1,4.7-1.7,7.3-1.7
		c1.6,0,10.1,0.6,10.1,9.9V32.7z"/>
	<path class="st0" d="M219.7,42v-6.4c2.8,0,3.8-0.5,4.3-0.9c0.4-0.4,1-1.4,1-4.7V12.3c0-0.7,0.4-1.1,0.6-1.4c0,0,0.1-0.1,0.2-0.2
		c0.8-0.6,2.2-0.9,3.2-0.9c1.1,0,2.5,0.3,3.3,1c0.2,0.2,0.8,0.8,0.8,1.5v17.6c0,4-0.8,7.1-3.2,9.3C227.7,41.2,224.1,42,219.7,42z
		 M224.7,4.2c0-2.2,1.9-3.9,4.3-3.9c2.3,0,4.4,1.7,4.4,3.9c0,2.2-2,3.9-4.4,3.9C226.7,8.1,224.7,6.3,224.7,4.2z"/>
	<path class="st0" d="M237.4,10.3h8.1V23c0,2.1,0.5,3.8,3.4,3.8c1.2,0,2.1-0.3,2.8-0.4V10.3h8.1v20.4c-5.1,1.9-8.1,2.6-11.8,2.6
		c-1.4,0-10.6-0.5-10.6-9.9V10.3z"/>
	<path class="st0" d="M263.4,16.9c0-4.6,4.6-7.1,9.9-7.1c1.6,0,4.1,0.2,6.8,1.2v6.6c-3.9-2-8-2.6-8-0.9c0,1.9,9.6,3,9.6,9.1
		c0,4.9-5.5,7.4-11.1,7.4c-2,0-4.6-0.3-7.6-1.4v-6.7c3.8,1.8,9.9,2.7,9.9,0.9C273,24,263.4,23.6,263.4,16.9z"/>
	<path class="st0" d="M294.1,10.3h5.5v6.4h-5.5v8.2c0,1.8,1.2,2.5,5.1,0.7v6.7c-2.2,0.5-3.9,0.8-5.4,0.8c-7.5,0-7.8-4.4-7.8-8.4
		v-8.1h-3.3v-6.4h3.3V7c0-1,1.3-2.4,4-2.4c2.1,0,4.1,1.1,4.1,2.4V10.3z"/>
	<path class="st0" d="M333.2,20h-6.5c0,1.9-0.3,3.6-0.9,4.9c-0.2,0.4-0.4,0.7-0.6,1.1h11.3v6.7h-22.4v-5.6c4-1.8,4.7-4,4.7-5.8V20
		h-4v-6.3h4V12c0-5.6,4.4-9.8,10.6-9.8c3.1,0,5.1,0.8,7.3,2.1l-2,6.5c-2.6-1.6-3.6-2-5.3-2c-2.1,0-2.6,1.4-2.6,3.1v1.6h6.5V20z"/>
	<path class="st0" d="M363.1,32.7h-23.3v-5.3c9.7-8,14-11.7,14-15.1c0-2-0.6-3.2-4-3.2c-1.9,0-4.5,1-9.7,5.1V5.9
		c3.1-2.3,6.5-3.7,10.6-3.7c7.8,0,11.3,5,11.3,9.7c0,4.9-3.2,9-9.3,14.1h10.5V32.7z"/>
	<path class="st0" d="M375.3,9.5v2.8c7.6-0.4,12.6,3.9,12.6,10c0,6.3-5.7,10.9-12.9,10.9c-3.1,0-5.8-0.5-8.7-1.7v-7.7
		c3.8,2,6,2.8,8.5,2.8c1.8,0,4.9-0.7,4.9-3.9c0-2.4-1.6-4-6.1-4c-1.3,0-2.5,0.1-6.2,0.7V2.7H387v6.8H375.3z"/>
</g>
</svg>
