<?xml version="1.0" encoding="utf-8"?>
<!-- Generator: Adobe Illustrator 22.1.0, SVG Export Plug-In . SVG Version: 6.00 Build 0)  -->
<svg version="1.1" id="Layer_2" xmlns="http://www.w3.org/2000/svg" xmlns:xlink="http://www.w3.org/1999/xlink" x="0px" y="0px"
	 width="280.7px" height="61.6px" viewBox="0 0 280.7 61.6" style="enable-background:new 0 0 280.7 61.6;" xml:space="preserve">
<style type="text/css">
	.st0{fill:#FFFFFF;}
</style>
<g>
	<path class="st0" d="M28.5,8l-6.1,17.5h-2.2c-1.7,0-3.4-0.4-4-2.3l-2.1-6l-3,8.2H9c-1.7,0-3.4-0.5-4-2.3L0,8h6.6l2.3,8.6L11.8,8h5
		l2.8,8.6L22,8H28.5z"/>
	<path class="st0" d="M30.2,3.3c0-1.7,1.5-3,3.4-3c1.8,0,3.4,1.3,3.4,3s-1.6,3-3.4,3C31.7,6.3,30.2,4.9,30.2,3.3z M36.7,25.5h-6.3
		v-16c0-0.6,0.4-1,0.6-1.1c0.6-0.5,1.8-0.8,2.6-0.8c0.8,0,2,0.3,2.6,0.8c0.2,0.1,0.6,0.6,0.6,1.1V25.5z"/>
	<path class="st0" d="M47.5,8h4.3v5h-4.3v6.4c0,1.4,0.9,2,4,0.6v5.3c-1.8,0.4-3,0.6-4.2,0.6c-5.8,0-6.1-3.4-6.1-6.5V13h-2.6V8h2.6
		V5.5c0-0.8,1-1.9,3.2-1.9c1.6,0,3.2,0.8,3.2,1.9V8z"/>
	<path class="st0" d="M71.7,25.5h-6.3v-9.8c0-1.7-0.3-3-2.6-3c-0.8,0-1.6,0.2-2.2,0.3v12.5h-6.3V1.9c0-0.5,0.3-0.8,0.5-1
		c0,0,0.1-0.1,0.2-0.1C55.5,0.2,56.6,0,57.4,0c0.8,0,2,0.3,2.6,0.8c0.2,0.1,0.6,0.6,0.6,1.1v6.4C61.5,8,63,7.6,64,7.6
		c1.1,0,7.7-0.2,7.7,7.8V25.5z"/>
	<path class="st0" d="M83.2,13.2c0-3.6,3.6-5.5,7.7-5.5c1.3,0,3.2,0.2,5.3,0.9v5.1c-3-1.5-6.2-2-6.2-0.7c0,1.5,7.5,2.3,7.5,7.1
		c0,3.9-4.3,5.7-8.6,5.7c-1.6,0-3.6-0.2-5.9-1.1v-5.2c3,1.4,7.7,2.1,7.7,0.7C90.6,18.7,83.2,18.4,83.2,13.2z"/>
	<path class="st0" d="M101,13.8V8.9c2.5-0.9,4.6-1.3,6.4-1.3c6.6,0,8.3,4.3,8.3,7.5v9.2c-4.1,1.3-6.1,1.5-8.7,1.5
		c-5,0-7.7-2.8-7.7-5.9c0-3.1,3.6-6.3,9.8-6C109.1,11.7,104,11.6,101,13.8z M109.1,17.3c-3,0.2-3.7,1.4-3.7,2.5c0,1,1.1,2.1,3.7,1.6
		V17.3z"/>
	<path class="st0" d="M137.2,8l-7.8,17.5h-2.1c-1.8,0-3.2-0.5-4-2.2L116.7,8h6.8l3.4,9.1l3.5-9.1H137.2z"/>
	<path class="st0" d="M138.8,3.3c0-1.7,1.5-3,3.4-3c1.8,0,3.4,1.3,3.4,3s-1.6,3-3.4,3C140.3,6.3,138.8,4.9,138.8,3.3z M145.4,25.5
		h-6.3v-16c0-0.6,0.4-1,0.6-1.1c0.6-0.5,1.8-0.8,2.6-0.8c0.8,0,2,0.3,2.6,0.8c0.2,0.1,0.6,0.6,0.6,1.1V25.5z"/>
	<path class="st0" d="M166.2,25.5h-6.3v-9.9c0-1.6-0.3-3-2.6-3c-0.9,0-1.6,0.2-2.2,0.3v12.5h-6.3V9.6c4-1.5,6.3-2,9.2-2
		c1.1,0,8.3,0.4,8.3,7.7V25.5z"/>
	<path class="st0" d="M176.8,32.9c-1.9,0-3.9-0.3-6.3-1.4v-5.2c2.8,1.9,4.6,1.7,5.6,1.7c2.1,0,4.2-1,4.4-2.7
		c-0.9,0.2-2.2,0.6-3.1,0.6c-4.5,0-8.9-2.5-8.9-8.4c0-6.1,5.2-9.8,11.2-9.8c2.5,0,5.4,0.6,7.2,1.6V23c0,3.7-0.8,5.8-2.9,7.6
		C181.6,32.6,178.4,32.9,176.8,32.9z M180.6,12.9c-3.5-0.5-5.7,1.3-5.7,4.4c0,2.3,1.8,3.3,3.3,3.3c0.9,0,1.8-0.3,2.4-0.6V12.9z"/>
	<path class="st0" d="M189.7,13.2c0-3.6,3.6-5.5,7.7-5.5c1.3,0,3.2,0.2,5.3,0.9v5.1c-3-1.5-6.2-2-6.2-0.7c0,1.5,7.5,2.3,7.5,7.1
		c0,3.9-4.3,5.7-8.6,5.7c-1.6,0-3.6-0.2-5.9-1.1v-5.2c3,1.4,7.7,2.1,7.7,0.7C197.1,18.7,189.7,18.4,189.7,13.2z"/>
	<path class="st0" d="M215,13.2c0-3.6,3.6-5.5,7.7-5.5c1.3,0,3.2,0.2,5.3,0.9v5.1c-3-1.5-6.2-2-6.2-0.7c0,1.5,7.5,2.3,7.5,7.1
		c0,3.9-4.3,5.7-8.6,5.7c-1.6,0-3.6-0.2-5.9-1.1v-5.2c3,1.4,7.7,2.1,7.7,0.7C222.4,18.7,215,18.4,215,13.2z"/>
	<path class="st0" d="M232.8,13.8V8.9c2.5-0.9,4.6-1.3,6.4-1.3c6.6,0,8.3,4.3,8.3,7.5v9.2c-4.1,1.3-6.1,1.5-8.7,1.5
		c-5,0-7.7-2.8-7.7-5.9c0-3.1,3.6-6.3,9.8-6C240.9,11.7,235.8,11.6,232.8,13.8z M240.9,17.3c-3,0.2-3.7,1.4-3.7,2.5
		c0,1,1.1,2.1,3.7,1.6V17.3z"/>
	<path class="st0" d="M262.3,8v5h-4.3v12.5h-6.3V13h-2.6V8h2.6c0.5-6.2,4.2-9.5,11.3-7.3V6c-2.6-1.5-5.1-0.9-5,2H262.3z"/>
	<path class="st0" d="M269.5,18.3c0.2,1.8,1.8,2.6,3.7,2.6c2,0,3.2-0.3,6.1-1.4v5.3c-2.3,0.7-4.1,1.1-6.5,1.1
		c-5.9,0-9.9-3.6-9.9-8.8c0-5.3,3.9-9.4,9.6-9.4c6.6,0,8.8,5.6,8.2,10.7H269.5z M269.7,14.4h4.7c-0.3-1.6-1.5-2-2.2-2
		C270.9,12.4,270.2,13.2,269.7,14.4z"/>
</g>
<g>
	<path class="st0" d="M63.8,49.6v-4.9c2.5-0.9,4.6-1.3,6.4-1.3c6.6,0,8.3,4.3,8.3,7.5v9.2c-4.1,1.3-6.1,1.5-8.7,1.5
		c-5,0-7.7-2.8-7.7-5.9c0-3.1,3.6-6.3,9.8-6C71.9,47.4,66.8,47.3,63.8,49.6z M71.9,53.1c-3,0.2-3.7,1.4-3.7,2.5c0,1,1.1,2.1,3.7,1.6
		V53.1z"/>
	<path class="st0" d="M81.1,48.9c0-3.6,3.6-5.5,7.7-5.5c1.3,0,3.2,0.2,5.3,0.9v5.1c-3-1.5-6.2-2-6.2-0.7c0,1.5,7.5,2.3,7.5,7.1
		c0,3.9-4.3,5.7-8.6,5.7c-1.6,0-3.6-0.2-5.9-1.1v-5.2c3,1.4,7.7,2.1,7.7,0.7C88.6,54.4,81.1,54.2,81.1,48.9z"/>
	<path class="st0" d="M124.5,61.2h-6.3v-9.8c0-1.7-0.3-3-2.6-3c-0.8,0-1.6,0.2-2.2,0.4v12.5H107V37.6c0-0.5,0.3-0.8,0.5-1
		c0,0,0.1-0.1,0.2-0.1c0.6-0.5,1.8-0.7,2.6-0.7c0.8,0,2,0.3,2.6,0.8c0.2,0.1,0.6,0.6,0.6,1.1V44c0.9-0.3,2.4-0.7,3.4-0.7
		c1.1,0,7.7-0.2,7.7,7.8V61.2z"/>
	<path class="st0" d="M126.8,52.5c0-6.2,4.8-9.1,9.8-9.1s9.8,2.9,9.8,9.1c0,6.2-4.8,9.1-9.8,9.1S126.8,58.7,126.8,52.5z M133.2,52.4
		c0,3,1.5,4.3,3.5,4.3s3.5-1.3,3.5-4.3c0-2.9-1.5-4.2-3.5-4.2S133.2,49.5,133.2,52.4z"/>
	<path class="st0" d="M148.9,43.8h6.3v9.9c0,1.6,0.4,3,2.6,3c0.9,0,1.6-0.2,2.2-0.3V43.8h6.3v15.9c-4,1.5-6.3,2-9.2,2
		c-1.1,0-8.3-0.4-8.3-7.7V43.8z"/>
	<path class="st0" d="M169.1,48.9c0-3.6,3.6-5.5,7.7-5.5c1.3,0,3.2,0.2,5.3,0.9v5.1c-3-1.5-6.2-2-6.2-0.7c0,1.5,7.5,2.3,7.5,7.1
		c0,3.9-4.3,5.7-8.6,5.7c-1.6,0-3.6-0.2-5.9-1.1v-5.2c3,1.4,7.7,2.1,7.7,0.7C176.5,54.4,169.1,54.2,169.1,48.9z"/>
	<path class="st0" d="M191.8,54.1c0.2,1.8,1.8,2.6,3.7,2.6c2,0,3.2-0.3,6.1-1.4v5.2c-2.3,0.7-4.1,1.1-6.5,1.1
		c-5.9,0-9.9-3.6-9.9-8.8c0-5.3,3.9-9.4,9.6-9.4c6.6,0,8.8,5.6,8.2,10.7H191.8z M192,50.2h4.7c-0.3-1.6-1.5-2-2.2-2
		C193.2,48.1,192.6,48.9,192,50.2z"/>
	<path class="st0" d="M205.1,48.9c0-3.6,3.6-5.5,7.7-5.5c1.3,0,3.2,0.2,5.3,0.9v5.1c-3-1.5-6.2-2-6.2-0.7c0,1.5,7.5,2.3,7.5,7.1
		c0,3.9-4.3,5.7-8.6,5.7c-1.6,0-3.6-0.2-5.9-1.1v-5.2c3,1.4,7.7,2.1,7.7,0.7C212.6,54.4,205.1,54.2,205.1,48.9z"/>
</g>
</svg>
